<?xml version="1.0" encoding="UTF-8" standalone="no"?>
<!-- Created with Inkscape (http://www.inkscape.org/) -->

<svg
   xmlns:dc="http://purl.org/dc/elements/1.1/"
   xmlns:cc="http://creativecommons.org/ns#"
   xmlns:rdf="http://www.w3.org/1999/02/22-rdf-syntax-ns#"
   xmlns:svg="http://www.w3.org/2000/svg"
   xmlns="http://www.w3.org/2000/svg"
   xmlns:sodipodi="http://sodipodi.sourceforge.net/DTD/sodipodi-0.dtd"
   xmlns:inkscape="http://www.inkscape.org/namespaces/inkscape"
   width="744.09448819"
   height="1052.3622047"
   id="svg2"
   version="1.1"
   inkscape:version="0.48.3.1 r9886"
   sodipodi:docname="logo.svg">
  <title
     id="title3874">git-kata-logo</title>
  <defs
     id="defs4">
    <filter
       inkscape:collect="always"
       id="filter3851">
      <feGaussianBlur
         inkscape:collect="always"
         stdDeviation="4.02875"
         id="feGaussianBlur3853" />
    </filter>
    <filter
       inkscape:collect="always"
       id="filter3902"
       x="-0.47540555"
       width="1.9508111"
       y="-0.446034"
       height="1.892068">
      <feGaussianBlur
         inkscape:collect="always"
         stdDeviation="32.083877"
         id="feGaussianBlur3904" />
    </filter>
  </defs>
  <sodipodi:namedview
     id="base"
     pagecolor="#ffffff"
     bordercolor="#666666"
     borderopacity="1.0"
     inkscape:pageopacity="0.0"
     inkscape:pageshadow="2"
     inkscape:zoom="0.7"
     inkscape:cx="187.69009"
     inkscape:cy="989.52046"
     inkscape:document-units="px"
     inkscape:current-layer="layer1"
     showgrid="false"
     showguides="true"
     inkscape:guide-bbox="true"
     inkscape:window-width="1680"
     inkscape:window-height="1026"
     inkscape:window-x="1680"
     inkscape:window-y="24"
     inkscape:window-maximized="1" />
  <metadata
     id="metadata7">
    <rdf:RDF>
      <cc:Work
         rdf:about="">
        <dc:format>image/svg+xml</dc:format>
        <dc:type
           rdf:resource="http://purl.org/dc/dcmitype/StillImage" />
        <dc:title>git-kata-logo</dc:title>
        <dc:creator>
          <cc:Agent>
            <dc:title>Kamil “Arpegius” Szcześniak</dc:title>
          </cc:Agent>
        </dc:creator>
        <dc:rights>
          <cc:Agent>
            <dc:title>git-kata</dc:title>
          </cc:Agent>
        </dc:rights>
        <cc:license
           rdf:resource="http://creativecommons.org/licenses/publicdomain/" />
      </cc:Work>
      <cc:License
         rdf:about="http://creativecommons.org/licenses/publicdomain/">
        <cc:permits
           rdf:resource="http://creativecommons.org/ns#Reproduction" />
        <cc:permits
           rdf:resource="http://creativecommons.org/ns#Distribution" />
        <cc:permits
           rdf:resource="http://creativecommons.org/ns#DerivativeWorks" />
      </cc:License>
    </rdf:RDF>
  </metadata>
  <g
     inkscape:label="Layer 1"
     inkscape:groupmode="layer"
     id="layer1">
    <rect
       style="fill:#000000;stroke:none"
       id="rect3759"
       width="435.37573"
       height="427.29456"
       x="4.0406113"
       y="3.8238492"
       ry="9.8257799" />
    <path
       id="path3834"
       d="m 135.49503,34.924125 49.13944,51.19148 c -2.1677,4.771 -3.375,10.07441 -3.375,15.656255 0,6.41306 1.5934,12.42453 4.40625,17.71875 l -54.71875,41.75 c -2.95998,-1.07534 -6.16845,-1.65625 -9.5,-1.65625 -15.34202,0 -27.781249,12.43923 -27.781249,27.78125 0,12.15046 7.820919,22.47859 18.687499,26.25 l 0,74.84375 c -10.29806,3.72772 -17.656249,13.57169 -17.656249,25.15625 0,14.78414 11.965879,26.78125 26.749999,26.78125 14.78414,10e-6 26.78125,-11.99711 26.78125,-26.78125 0,-11.59485 -7.37507,-21.43614 -17.6875,-25.15625 l 0,-74.84375 c 10.88124,-3.76334 18.6875,-14.08906 18.6875,-26.25 0,-3.58545 -0.70062,-7.00977 -1.9375,-10.15625 l 54.65625,-41.71875 c 3.29237,1.67944 6.86368,2.90529 10.625,3.5625 l 0,54.53125 c -9.56401,4.38879 -16.21875,14.03816 -16.21875,25.25 0,12.15719 7.8115,22.48378 18.6875,26.25 l 0,74.84375 c -10.31242,3.72011 -17.6875,13.5614 -17.6875,25.15625 0,14.78417 11.99713,26.78127 26.78125,26.78127 14.78414,0 26.78125,-11.9971 26.78125,-26.78127 0,-11.59485 -7.37507,-21.43614 -17.6875,-25.15625 l 0,-74.84375 c 10.87601,-3.76622 18.6875,-14.0928 18.6875,-26.25 0,-11.42154 -6.89708,-21.23134 -16.75,-25.5 l 0,-57.25 c 5.35189,-2.50132 9.99024,-6.20562 13.625,-10.78125 l 53.75,23.0625 c 0.70656,11.39674 8.26829,20.91807 18.625,24.5 l 0,74.84375 c -10.31242,3.72011 -17.6875,13.5614 -17.6875,25.15625 0,14.78414 11.99713,26.78126 26.78125,26.78125 14.78414,10e-6 26.75,-11.99712 26.75,-26.78125 0,-11.58535 -7.3571,-21.42911 -17.65625,-25.15625 l 0,-74.84375 c 10.86659,-3.77141 18.68751,-14.09954 18.6875,-26.25 0,-15.34202 -12.43922,-27.78126 -27.78125,-27.78125 -7.76679,-1e-5 -14.80261,3.17439 -19.84375,8.3125 l -53.46875,-22.9375 c 0.052,-0.81187 0.0625,-1.61251 0.0625,-2.4375 0,-20.920945 -16.95405,-37.906255 -37.875,-37.906255 -4.9925,0 -9.76031,0.99502 -14.125,2.75 l -41.78204,-40.68654 z"
       style="fill:#ffffff;fill-opacity:1;fill-rule:evenodd;stroke:none"
       inkscape:connector-curvature="0"
       sodipodi:nodetypes="ccsccssccsssccsccccsccsssccsccccccsssccssccssccc" />
    <path
       style="fill:#ff0000;fill-rule:evenodd;stroke:none;filter:url(#filter3851)"
       d="m 221.64971,16.047245 c -20.05726,0 -39.436,2.94824 -57.71875,8.40625 l 42.59375,44.6875 c 4.36469,-1.75498 9.1325,-2.75 14.125,-2.75 20.92095,0 37.875,16.98531 37.875,37.906255 0,0.82499 -0.0106,1.62563 -0.0625,2.4375 l 53.46875,22.9375 c 5.04114,-5.13811 12.07696,-8.31251 19.84375,-8.3125 15.34203,-1e-5 27.78125,12.43923 27.78125,27.78125 10e-6,12.15046 -7.82091,22.47859 -18.6875,26.25 l 0,74.84375 c 10.29915,3.72714 17.65625,13.5709 17.65625,25.15625 0,14.78413 -11.96586,26.78126 -26.75,26.78125 -14.78412,10e-6 -26.78125,-11.99711 -26.78125,-26.78125 0,-11.59485 7.37508,-21.43614 17.6875,-25.15625 l 0,-74.84375 c -10.35671,-3.58193 -17.91844,-13.10326 -18.625,-24.5 l -53.75,-23.0625 c -3.63476,4.57563 -8.27311,8.27993 -13.625,10.78125 l 0,57.25 c 9.85292,4.26866 16.75,14.07846 16.75,25.5 0,12.1572 -7.81149,22.48378 -18.6875,26.25 l 0,74.84375 c 10.31243,3.72011 17.6875,13.5614 17.6875,25.15625 0,14.78414 -11.99711,26.78126 -26.78125,26.78125 -14.78412,10e-6 -26.78125,-11.99711 -26.78125,-26.78125 0,-11.59485 7.37508,-21.43614 17.6875,-25.15625 l 0,-74.84375 c -10.876,-3.76622 -18.6875,-14.09281 -18.6875,-26.25 0,-11.21184 6.65474,-20.86121 16.21875,-25.25 l 0,-54.53125 c -3.76132,-0.65721 -7.33263,-1.88306 -10.625,-3.5625 l -54.65625,41.71875 c 1.23688,3.14648 1.9375,6.5708 1.9375,10.15625 0,12.16094 -7.80626,22.48666 -18.6875,26.25 l 0,74.84375 c 10.31243,3.72011 17.6875,13.5614 17.6875,25.15625 0,14.78414 -11.99711,26.78126 -26.78125,26.78125 -14.78412,0 -26.749999,-11.99711 -26.749999,-26.78125 0,-11.58456 7.358189,-21.42853 17.656249,-25.15625 l 0,-74.84375 c -10.86658,-3.77141 -18.687499,-14.09954 -18.687499,-26.25 0,-15.34202 12.439229,-27.78125 27.781249,-27.78125 3.33155,0 6.54002,0.58091 9.5,1.65625 l 54.71875,-41.75 c -2.81285,-5.29422 -4.40625,-11.30569 -4.40625,-17.71875 0,-5.581845 1.2073,-10.885255 3.375,-15.656255 l -44.84375,-47.09375 c -2.06528,-2.16809 -2.79922,-5.10084 -2.25,-7.8125 C 68.994871,65.269825 20.212211,135.66947 20.212211,217.48475 c 0,111.24592 90.191569,201.4375 201.437499,201.4375 111.24593,0 201.4375,-90.19158 201.4375,-201.4375 0,-111.24593 -90.19157,-201.437505 -201.4375,-201.437505 z"
       id="path2987"
       inkscape:connector-curvature="0" />
    <path
       style="opacity:0.23824451;fill:#000000;fill-opacity:1;fill-rule:evenodd;stroke:none"
       d="m 410.96995,163.39064 c 0.66891,5.5273 1.04452,11.1102 1.04452,16.76046 0,79.00583 -66.75933,146.94347 -162.42152,176.98927 -4.26583,8.57917 -13.29479,14.51174 -23.71656,14.51173 -5.65315,0 -10.88484,-1.77433 -15.17614,-4.73729 -22.74895,4.36609 -46.66952,6.71617 -71.3647,6.71617 -14.27834,0 -28.27887,-0.80783 -41.964777,-2.30869 34.027627,26.91324 77.365437,43.0555 124.573337,43.0555 109.36249,0 198.02708,-86.53466 198.02708,-193.27 0,-20.10254 -3.16509,-39.49088 -9.00124,-57.71715 z"
       id="path3026"
       inkscape:connector-curvature="0" />
    <path
       transform="translate(54.508301,-82.025408)"
       d="m 368.57143,299.50504 a 201.42857,201.42857 0 1 1 -402.857151,0 201.42857,201.42857 0 1 1 402.857151,0 z"
       sodipodi:ry="201.42857"
       sodipodi:rx="201.42857"
       sodipodi:cy="299.50504"
       sodipodi:cx="167.14285"
       id="path2989"
       style="fill:none;stroke:#ffffff;stroke-width:10;stroke-linecap:butt;stroke-linejoin:miter;stroke-miterlimit:4;stroke-opacity:1;stroke-dasharray:none"
       sodipodi:type="arc" />
    <path
       sodipodi:type="arc"
       style="fill:#ffffff;fill-opacity:1;fill-rule:evenodd;stroke:none;filter:url(#filter3902)"
       id="path3820"
       sodipodi:cx="197.5"
       sodipodi:cy="156.64789"
       sodipodi:rx="109.64286"
       sodipodi:ry="44.285713"
       d="m 307.14286,156.64789 a 109.64286,44.285713 0 1 1 -219.28572,0 109.64286,44.285713 0 1 1 219.28572,0 z"
       transform="matrix(0.30916988,-0.33116438,0.31213543,0.33042799,5.1775097,131.81775)" />
  </g>
</svg>
